…
## Data frame output

Above, we extrcated lists from `map` list. However, we can stack-up these results row-wise 


```r
map_df(got_chars, extract, c("name", "culture", "gender", "id", "born", "alive"))
```

```
## # A tibble: 30 x 6
##    name               culture  gender    id born                     alive
##    <chr>              <chr>    <chr>  <int> <chr>                    <lgl>
##  1 Theon Greyjoy      Ironborn Male    1022 In 278 AC or 279 AC, at… TRUE 
##  2 Tyrion Lannister   ""       Male    1052 In 273 AC, at Casterly … TRUE 
##  3 Victarion Greyjoy  Ironborn Male    1074 In 268 AC or before, at… TRUE 
##  4 Will               ""       Male    1109 ""                       FALSE
##  5 Areo Hotah         Norvoshi Male    1166 In 257 AC or before, at… TRUE 
##  6 Chett              ""       Male    1267 At Hag's Mire            FALSE
##  7 Cressen            ""       Male    1295 In 219 AC or 220 AC      FALSE
##  8 Arianne Martell    Dornish  Female   130 In 276 AC, at Sunspear   TRUE 
##  9 Daenerys Targaryen Valyrian Female  1303 In 284 AC, at Dragonsto… TRUE 
## 10 Davos Seaworth     Westeros Male    1319 In 260 AC or before, at… TRUE 
## # ... with 20 more rows
```
…
```r
got_chars %>% {
  tibble(
    name <- map_chr(., "name"),
    culture <- map_chr(., "culture"),
    gender <- map_chr(., "gender"),
    id <- map_int(., "id"),
    born <- map_chr(., "born"),
    alive <- map_lgl(., "alive")
  )
}
```

```
## # A tibble: 30 x 6
##    `name <- map_chr… `culture <- map_c… `gender <- map_c… `id <- map_int(…
##    <chr>             <chr>              <chr>                        <int>
##  1 Theon Greyjoy     Ironborn           Male                          1022
##  2 Tyrion Lannister  ""                 Male                          1052
##  3 Victarion Greyjoy Ironborn           Male                          1074
##  4 Will              ""                 Male                          1109
##  5 Areo Hotah        Norvoshi           Male                          1166
##  6 Chett             ""                 Male                          1267
##  7 Cressen           ""                 Male                          1295
##  8 Arianne Martell   Dornish            Female                         130
##  9 Daenerys Targary… Valyrian           Female                        1303
## 10 Davos Seaworth    Westeros           Male                          1319
## # ... with 20 more rows, and 2 more variables: `born <- map_chr(.,
## #   "born")` <chr>, `alive <- map_lgl(., "alive")` <lgl>
```
…
